{
	"longHost":"My Host",
	"shortHost":"h", => one letter to identify the host, must be unique in your network, it is an identifier
	"listeners":[
		{"type":"db", "url":"jdbc:mariadb://dbhostip:port/dbhostdatabase", "user":"userondb", "password":"passondb"}, => mandatory, a database to save to
		{"type":"rt", "host":"<ip_of_RT_server>"} => real-time server if you have one (or more!) running
	],
	"getters":[
		{"type":"ProcAvg"}, => processor average
		{"type":"Pi3TempThermalZone", "factor":1}, => for Raspberries and other mini computers, CPU temperature
		{"type":"MemUsage"}, => memory usage
		{"type":"HDD", "disks":"ab", "ignore":"Disk To Ignore", "hdds":[ => watch the temperature of hard disks
			{"short":"ddrhlm", "name":"Hitachi HUA722020ALA330", "instanceLong":"Hitachi 1T"},
			{"short":"ddsc240bm", "name":"CT240BX500SSD1", "instanceLong":"Crucial 240"}
		]},
		{"type":"NVME", "disks":"0", "hdds":[
			{"short":"ddssp1t", "name":"SPCC M.2 PCIE SSD", "serialNumber":"AA000000000000001295", "instanceLong": "SPCC 1T NVMESSD"}
		]},
		{"type":"MdAdm", "instanceShort":"126"}, => watch the status (problem or ok) of mdadm arrays (1=running and ok, 0=error)
		{"type":"LmSensors", "groups":[ => temperature, fans, etc. from sensors
			{"name":"nct6779-isa-0290", "sensors":[ => the sensor group
				{"line":"fan1", "short":"df1", "typeLong":"Fan", "typeShort":"f", "instanceLong":"Fan1", "instanceShort":"f1"},
				{"line":"fan2", "short":"df2", "typeLong":"Fan", "typeShort":"f", "instanceLong":"Fan2", "instanceShort":"f2"},
				{"line":"SYSTIN", "short":"dts", "typeLong":"Temperature", "typeShort":"t", "instanceLong":"System", "instanceShort":"sys"},
				{"line":"CPUTIN", "short":"dtc", "typeLong":"Temperature", "typeShort":"t", "instanceLong":"CPU", "instanceShort":"cpu"}
			]},
			{"name":"k10temp-pci-00c3", "sensors":[
				{"line":"temp1", "short":"dtp", "typeLong":"Temperature", "typeShort":"t", "instanceLong":"Core", "instanceShort":"core"}
			]}
		]},
		{"type":"WatchProcess", "watched":"process-to-watch", "instanceShort":"mp", "instanceLong":"My Process"}, => processes to watch using ps (0: process is running, non 0 is an error)
		{"type":"DeconzSensors", "url":"http://localhost/api/UID", "sensors":[ => deconz sensors monitoring - I have only temperature/pressure/humidity and temperature/water detectors
			{"type":"bht", "name":"Inside", "short":"in"}, => type: b=battery, h=humidity, t=temperature
			{"type":"bhpt", "name":"Outside", "short":"out"}, => p=pressure
			{"type":"bw", "name":"That Thing That Can Leak", "short":"tl"} => w=water detection (there is also temperature on those, automatically added)
		]},
		{"type":"MysqlSlave", "host":"localhost", "port":"3306", "user":"myuser", "pass":"mypass"}, => watch the status of a mysql replication slave, 1=running and ok, 0=not running
		{"type":"UPS", "ups":"eaton800@localhost"}, => watch the status of your UPS through upsc
		{"type":"Nvidia", "cards":[ => monitor your nvidia cards through nvidia-smi
			{"number":"0", "instanceLong":"Card full name as you wish", "instanceShort":"card-alias-should-be-short"}
		]},
		{
			"type":"DiskSpace",
			"checkAll": {"short":"all", "name":"CheckAll", "ignore":[ => use only if you want to double-check that all paths are included here
				"/snap/*",
				"/boot/efi",
				"tmpfs", => ignored automatically
				"udev" => ignored automatically
			]},
			"paths":[
				{"path":"/", "short":"r", "name":"root", "type":"absolute", "min":"10G", "minWarn":"20G"}
				{"path":"/mount", "short":"m", "name":"mount", "type":"percent", "minWarn":"10"}
			]
		},
		{
			"type":"ZpoolSpace",
			"checkAll": {"short":"all", "name":"CheckAll", "ignore":[ => use only if you want to double-check that all paths are included here
			]},
			"pools":[
				{"pool":"mypool1", "short":"daz1", "name":"pool1", "type":"absolute", "min":"10G", "minWarn":"20G"}
				{"pool":"mypool2", "short":"daz2", "name":"pool2", "type":"percent", "minWarn":"10"}
			]
		},
		{"type":"Meross", "command":"your_python_command", "plugs":[ => watch the status of your Meross plugs (power, especially)
			{"number":"1", "name":"myfirstplug"}, => the name you set on your plug on the Meross app
			{"number":"2", "name":"mysecondplug"}
		]},

	]
}